{
  "project_info": {
    "project_number": "719941176428",
    "firebase_url": "https://scheckers-c2f90.firebaseio.com",
    "project_id": "scheckers-c2f90",
    "storage_bucket": "scheckers-c2f90.appspot.com"
  },
  "client": [
    {
      "client_info": {
        "mobilesdk_app_id": "1:719941176428:android:37308888f31f6d83",
        "android_client_info": {
          "package_name": "com.dolg.game.scheckers"
        }
      },
      "oauth_client": [
        {
          "client_id": "719941176428-fmu63v33prt5uvju1bdgr5uoe0409k93.apps.googleusercontent.com",
          "client_type": 3
        }
      ],
      "api_key": [
        {
          "current_key": "AIzaSyB6it1NV12ccbwM0JEjoabKZY0_Yr7ZwOI"
        }
      ],
      "services": {
        "analytics_service": {
          "status": 1
        },
        "appinvite_service": {
          "status": 1,
          "other_platform_oauth_client": []
        },
        "ads_service": {
          "status": 2
        }
      }
    }
  ],
  "configuration_version": "1"
}